<svg xmlns="http://www.w3.org/2000/svg" width="183.001" height="183.001" viewBox="0 0 183.001 183.001">
  <g id="Group_177" data-name="Group 177" transform="translate(-39 -495)">
    <path id="Path_55" data-name="Path 55" d="M91.5,0A91.5,91.5,0,1,0,183,91.5,91.605,91.605,0,0,0,91.5,0Zm0,171.563A80.063,80.063,0,1,1,171.563,91.5,80.153,80.153,0,0,1,91.5,171.563Z" transform="translate(39 495)" fill="#197163"/>
    <path id="Path_54" data-name="Path 54" d="M197.05,163.216a5.317,5.317,0,0,0-7.537.365l-32.559,36.073-15.73-16.09a5.309,5.309,0,0,0-7.547-.064,5.388,5.388,0,0,0-.064,7.594l19.69,20.139a5.314,5.314,0,0,0,3.806,1.606.635.635,0,0,1,.1.005,5.327,5.327,0,0,0,3.848-1.762L197.412,170.8A5.4,5.4,0,0,0,197.05,163.216Z" transform="translate(-34.938 399.167)" fill="#197163"/>
  </g>
</svg>
