<svg xmlns="http://www.w3.org/2000/svg" width="48.998" height="46.5" viewBox="0 0 48.998 46.5">
  <g id="Component_26_4" data-name="Component 26 – 4" transform="translate(0.492 0.5)">
    <path id="Subtraction_2" data-name="Subtraction 2" d="M40.057,26.538a37.537,37.537,0,0,0-32.277-.145c-1.448-1.152-2.932-2.338-4.241-3.384l-.458-.366L1.2,21.146a2.39,2.39,0,0,1-1.11-2.69,2.114,2.114,0,0,1,2.343-1.7c1.527-.042,3.075-.088,4.573-.133,3.032-.091,6.167-.185,9.252-.245.675-.013.851-.384,1.042-.949,1.552-4.6,3.133-9.255,4.612-13.6C22.343.562,22.988,0,24,0h0c1.015,0,1.659.566,2.089,1.83q.457,1.339.916,2.678l.008.024c1.2,3.5,2.438,7.124,3.62,10.7.283.856.624,1.136,1.4,1.149,3.323.056,6.7.16,9.969.26,1.231.038,2.5.077,3.76.113a2.038,2.038,0,0,1,2.113,1.609,2.351,2.351,0,0,1-.924,2.674l-1.166.931-.052.041c-1.862,1.487-3.788,3.025-5.686,4.529Z" fill="#ffe32c" stroke="rgba(0,0,0,0)" stroke-miterlimit="10" stroke-width="1"/>
    <text id="TOP" transform="translate(9 41)" fill="#ffe32c" font-size="15" font-family="LBetSTDNus-Black, LBet STD Nus" font-weight="800"><tspan x="0" y="0">TOP</tspan></text>
  </g>
</svg>
