<svg id="Component_46_1" data-name="Component 46 – 1" xmlns="http://www.w3.org/2000/svg" width="51" height="51" viewBox="0 0 51 51">
  <circle id="Ellipse_70" data-name="Ellipse 70" cx="25.5" cy="25.5" r="25.5" fill="#32333a"/>
</svg>
