<svg xmlns="http://www.w3.org/2000/svg" width="50.309" height="41.32" viewBox="0 0 50.309 41.32">
  <g id="desktop-monitor" transform="translate(0 0)">
    <path id="Path_408" data-name="Path 408" d="M49.077,4.167A4.151,4.151,0,0,0,46.116,3H4.192A4.153,4.153,0,0,0,1.231,4.167,3.728,3.728,0,0,0,0,6.973V33.99A3.729,3.729,0,0,0,1.231,36.8a4.153,4.153,0,0,0,2.961,1.167H18.447a4.96,4.96,0,0,1-.419,1.937,17.144,17.144,0,0,1-.838,1.738,2.652,2.652,0,0,0-.419,1.092,1.488,1.488,0,0,0,.5,1.117,1.655,1.655,0,0,0,1.179.473H31.862a1.655,1.655,0,0,0,1.179-.473,1.487,1.487,0,0,0,.5-1.117,2.744,2.744,0,0,0-.419-1.08,17.765,17.765,0,0,1-.838-1.763,5,5,0,0,1-.419-1.925H46.117a4.15,4.15,0,0,0,2.96-1.167,3.728,3.728,0,0,0,1.232-2.806V6.973A3.727,3.727,0,0,0,49.077,4.167ZM46.955,27.633a.745.745,0,0,1-.249.559.83.83,0,0,1-.59.235H4.192a.829.829,0,0,1-.589-.235.746.746,0,0,1-.249-.559V6.973A.744.744,0,0,1,3.6,6.414a.83.83,0,0,1,.589-.236H46.117a.827.827,0,0,1,.589.236.745.745,0,0,1,.249.559v20.66Z" transform="translate(0 -3)" fill="#fccd42"/>
  </g>
</svg>
