<svg xmlns="http://www.w3.org/2000/svg" width="33.368" height="35.122" viewBox="0 0 33.368 35.122">
  <g id="Group_1522" data-name="Group 1522" transform="translate(-905.278 -655.695)">
    <path id="Path_1289" data-name="Path 1289" d="M926.474,668.909H911.511a1.756,1.756,0,1,0,0,3.512h14.963a1.756,1.756,0,0,0,0-3.512Z" transform="translate(3.386 9.993)" fill="#03e47b"/>
    <path id="Path_1290" data-name="Path 1290" d="M913.534,663.708h1.756v7.025a1.756,1.756,0,1,0,3.512,0v-7.025h1.756a1.756,1.756,0,0,0,0-3.512h-7.025a1.756,1.756,0,1,0,0,3.512Z" transform="translate(4.915 3.403)" fill="#03e47b"/>
    <path id="Path_1291" data-name="Path 1291" d="M933.378,655.7H910.547a5.273,5.273,0,0,0-5.269,5.269v24.585c0,.1.023.193.028.292a5.315,5.315,0,0,0,5.241,4.977h22.831a5.313,5.313,0,0,0,5.239-4.977c.005-.1.03-.192.03-.292V660.964A5.274,5.274,0,0,0,933.378,655.7Zm1.756,29.856a1.759,1.759,0,0,1-1.756,1.756H910.547a1.759,1.759,0,0,1-1.756-1.756V660.964a1.758,1.758,0,0,1,1.756-1.756h22.831a1.758,1.758,0,0,1,1.756,1.756Z" transform="translate(0 0)" fill="#03e47b"/>
  </g>
</svg>
