<svg xmlns="http://www.w3.org/2000/svg" width="55.092" height="55.093" viewBox="0 0 55.092 55.093">
  <g id="Group_31" data-name="Group 31" transform="translate(0)">
    <g id="Group_30" data-name="Group 30">
      <path id="Path_78" data-name="Path 78" d="M24.936.079A27.565,27.565,0,0,0,.076,24.944a34.346,34.346,0,0,1,19.87,10.151C25.856,41,29.319,48.2,30.1,54.966a27.538,27.538,0,0,0,24.86-24.86A34.367,34.367,0,0,1,35.091,19.956,34.418,34.418,0,0,1,24.936.079Z" transform="translate(0.025 0.027)" fill="#93cc62"/>
      <path id="Path_79" data-name="Path 79" d="M47.8,26.717A27.527,27.527,0,0,0,21.085,0c.762,5.918,3.9,12.278,9.173,17.547A31.108,31.108,0,0,0,47.8,26.717Z" transform="translate(7.293)" fill="#93cc62"/>
      <path id="Path_80" data-name="Path 80" d="M0,21.09A27.527,27.527,0,0,0,26.71,47.8c-.762-5.91-3.9-12.266-9.171-17.535A31.161,31.161,0,0,0,0,21.09Z" transform="translate(-0.001 7.296)" fill="#93cc62"/>
    </g>
  </g>
</svg>
