<svg id="Group_1570" data-name="Group 1570" xmlns="http://www.w3.org/2000/svg" width="53.966" height="35.356" viewBox="0 0 53.966 35.356">
  <path id="Path_886" data-name="Path 886" d="M2216.078,280.225a6.438,6.438,0,0,0,1.176-1.949,6.68,6.68,0,0,0,0-4.7,6.447,6.447,0,0,0-1.176-1.953,6.7,6.7,0,0,0-1.77-1.428,6.994,6.994,0,0,0-2.205-.78v13.02a7,7,0,0,0,2.205-.78A6.7,6.7,0,0,0,2216.078,280.225Z" transform="translate(-2184.188 -258.243)" fill="#78829f"/>
  <path id="Path_887" data-name="Path 887" d="M1913.138,282.433h3.721V269.411h-7.442v13.022h3.721Z" transform="translate(-1909.418 -258.243)" fill="#78829f"/>
  <path id="Path_888" data-name="Path 888" d="M2133.014,271.619a6.43,6.43,0,0,0-1.177,1.953,6.695,6.695,0,0,0,0,4.7,6.421,6.421,0,0,0,1.177,1.949,6.674,6.674,0,0,0,1.769,1.426,7,7,0,0,0,2.205.78v-13.02a7,7,0,0,0-2.205.78A6.671,6.671,0,0,0,2133.014,271.619Z" transform="translate(-2110.937 -258.243)" fill="#78829f"/>
  <path id="Path_889" data-name="Path 889" d="M2233.5,174.364h-4.652V157.618h9.3V152.04a3.7,3.7,0,0,0-.293-1.449,3.757,3.757,0,0,0-1.979-1.984,3.673,3.673,0,0,0-1.442-.293H2212.1v9.3a7.7,7.7,0,0,1,2.892.864,8.468,8.468,0,0,1,2.366,1.86,8.7,8.7,0,0,1,1.6,2.592,8.343,8.343,0,0,1,.586,3.063,8.136,8.136,0,0,1-.586,3.034,8.512,8.512,0,0,1-1.6,2.546,8.81,8.81,0,0,1-2.366,1.848,8.559,8.559,0,0,1-2.892.939v9.305h22.335a3.676,3.676,0,0,0,1.442-.293,3.758,3.758,0,0,0,1.979-1.98,3.675,3.675,0,0,0,.293-1.442v-5.59H2233.5Z" transform="translate(-2184.188 -148.313)" fill="#78829f"/>
  <path id="Path_890" data-name="Path 890" d="M2419.472,269.411h-5.581v13.022h7.441V269.411Z" transform="translate(-2367.366 -258.243)" fill="#78829f"/>
  <path id="Path_891" data-name="Path 891" d="M1924.306,148.313h-11.162a3.709,3.709,0,0,0-1.449.293,3.75,3.75,0,0,0-1.984,1.984,3.7,3.7,0,0,0-.293,1.449v5.578h9.3v16.746h-9.3v5.59a3.675,3.675,0,0,0,.293,1.442,3.73,3.73,0,0,0,3.433,2.273h22.325v-9.305a7.705,7.705,0,0,1-2.889-.863,8.489,8.489,0,0,1-2.366-1.856,8.709,8.709,0,0,1-1.6-2.589,8.326,8.326,0,0,1-.587-3.06,8.154,8.154,0,0,1,.587-3.037,8.558,8.558,0,0,1,1.6-2.55,8.845,8.845,0,0,1,2.366-1.851,8.54,8.54,0,0,1,2.889-.941v-9.3h-11.163Z" transform="translate(-1909.418 -148.313)" fill="#78829f"/>
</svg>
