<svg xmlns="http://www.w3.org/2000/svg" width="37.686" height="42.697" viewBox="0 0 37.686 42.697">
  <path id="Path_1298" data-name="Path 1298" d="M1267.516-210.293c-.453,1.022.223,1.4.964,1.84q5.263,3.128,10.48,6.334a1.017,1.017,0,0,0,1.261.009,6.972,6.972,0,0,1,8.353.657,7.2,7.2,0,0,1,1.877,8.13,7.147,7.147,0,0,1-7.044,4.341,7.112,7.112,0,0,1-6.514-7.574,1.012,1.012,0,0,0-.587-1.108q-5.505-3.292-10.978-6.637a.956.956,0,0,0-1.179-.033,6.681,6.681,0,0,1-7.677-.091,6.662,6.662,0,0,1-3.074-6.824,6.781,6.781,0,0,1,5.3-5.954,6.594,6.594,0,0,1,5.492.916.817.817,0,0,0,1.031.014q5.584-3.4,11.194-6.763a.845.845,0,0,0,.487-.919,7.1,7.1,0,0,1,6.8-7.7,7.11,7.11,0,0,1,7.3,7.4,7.055,7.055,0,0,1-10.674,5.794,1.2,1.2,0,0,0-1.479.015q-5.146,3.161-10.338,6.248C1267.733-211.748,1267.081-211.337,1267.516-210.293Z" transform="translate(-1253.317 231.663)" fill="#cbdbec"/>
</svg>
