<svg xmlns="http://www.w3.org/2000/svg" width="64.202" height="56" viewBox="0 0 64.202 56">
  <path id="Path_1225" data-name="Path 1225" d="M724.03,561.944H678.284a9.239,9.239,0,0,0-9.228,9.228v37.544a9.239,9.239,0,0,0,9.228,9.228H724.03a9.239,9.239,0,0,0,9.228-9.228V571.172A9.239,9.239,0,0,0,724.03,561.944Zm-22.873,35.02a7.019,7.019,0,1,1,7.019-7.019A7.027,7.027,0,0,1,701.157,596.964Zm-27.842-15.537h2.09a.434.434,0,0,1,.433.435v16.167a.434.434,0,0,1-.433.434h-2.09Zm0,27.289v-5.994h2.09a4.7,4.7,0,0,0,4.692-4.693V581.861a4.7,4.7,0,0,0-4.692-4.694h-2.09v-6a4.975,4.975,0,0,1,4.969-4.969h20.743v12.671a11.272,11.272,0,0,0,0,22.142v12.669H678.284A4.975,4.975,0,0,1,673.315,608.716Zm50.714,4.969H703.286V601.016a11.273,11.273,0,0,0,0-22.142V566.2H724.03A4.975,4.975,0,0,1,729,571.172v6h-3.274a4.7,4.7,0,0,0-4.692,4.694v16.167a4.7,4.7,0,0,0,4.692,4.693H729v5.994A4.975,4.975,0,0,1,724.03,613.685ZM729,581.427v17.036h-3.274a.434.434,0,0,1-.433-.434V581.861a.434.434,0,0,1,.433-.435Z" transform="translate(-669.056 -561.944)" fill="#5fb42e"/>
</svg>
