<svg xmlns="http://www.w3.org/2000/svg" width="29.13" height="14.81" viewBox="0 0 29.13 14.81">
  <path id="Path_1311" data-name="Path 1311" d="M-1546.446,520.92l-13.718-11.286a1.988,1.988,0,0,1-.272-2.8,1.988,1.988,0,0,1,2.8-.272l11.214,9.226,11.427-9.237a1.988,1.988,0,0,1,2.8.3,1.988,1.988,0,0,1-.3,2.8Z" transform="translate(1560.889 -506.11)" fill="#9aa1b2"/>
</svg>
