<svg xmlns="http://www.w3.org/2000/svg" width="32.27" height="32.245" viewBox="0 0 32.27 32.245">
  <path id="Path_1277" data-name="Path 1277" d="M1170.73,244.352c3.545-3.547,7-7.026,10.482-10.477a3.205,3.205,0,1,1,4.453,4.586q-4.812,4.807-9.621,9.617c-.237.236-.506.441-.844.734.321.342.557.608.807.859,3.252,3.255,6.527,6.489,9.754,9.769a3.2,3.2,0,1,1-4.672,4.357q-4.777-4.771-9.548-9.548c-.256-.256-.526-.5-.833-.786-.3.287-.573.529-.828.784-3.256,3.252-6.495,6.521-9.771,9.753a3.2,3.2,0,1,1-4.357-4.677q4.779-4.77,9.552-9.544c.261-.26.565-.476.935-.783-.344-.364-.583-.628-.833-.879q-4.878-4.883-9.756-9.768a3.057,3.057,0,0,1-.766-3.671,3,3,0,0,1,3.057-1.86,4.821,4.821,0,0,1,2.34,1.182c3.261,3.15,6.439,6.386,9.647,9.591C1170.181,243.843,1170.444,244.082,1170.73,244.352Z" transform="translate(-1154.568 -232.781)" fill="#929da8"/>
</svg>
