<svg xmlns="http://www.w3.org/2000/svg" width="14.81" height="29.13" viewBox="0 0 14.81 29.13">
  <path id="Path_1217" data-name="Path 1217" d="M-1546.446,520.92l-13.718-11.286a1.988,1.988,0,0,1-.272-2.8,1.988,1.988,0,0,1,2.8-.272l11.214,9.226,11.427-9.237a1.988,1.988,0,0,1,2.8.3,1.988,1.988,0,0,1-.3,2.8Z" transform="translate(520.92 1560.889) rotate(90)" fill="#bac3d6"/>
</svg>
