<svg xmlns="http://www.w3.org/2000/svg" width="48.616" height="46.589" viewBox="0 0 48.616 46.589">
  <path id="star-wt" d="M48.488,18.1a2.581,2.581,0,0,0-2.222-1.774L32.232,15.051,26.686,2.066a2.585,2.585,0,0,0-4.754,0L16.385,15.051,2.349,16.325A2.587,2.587,0,0,0,.88,20.846l10.609,9.3L8.361,43.925a2.584,2.584,0,0,0,3.845,2.794l12.1-7.236,12.1,7.236a2.586,2.586,0,0,0,3.847-2.794L37.126,30.148l10.609-9.3a2.587,2.587,0,0,0,.754-2.747ZM24.541,39.343" transform="translate(0 -0.496)" fill="#f2f2f2"/>
</svg>
